{
  "useConfigFiles": true,
  "router": true,
  "vuex": true,
  "cssPreprocessor": "css",
  "plugins": {
    "@vue/cli-plugin-babel": {},
    "@vue/cli-plugin-eslint": {
      "config": "base",
      "lintOn": ["save", "commit"]
    }
  }
}